Exercises: ggplot2
…
Hmm, theres basically no points for about 20 years after WWII, and many combinations dont show up in early years. How can we see this in the data?

We could check for the number of observations per year:

anames %>% 
  group_by(year) %>%
  summarize(n()) 

## # A tibble: 136 x 2
##     year `n()`
##    <dbl> <int>
##  1  1880    22
##  2  1881    24
##  3  1882    24
##  4  1883    25
##  5  1884    25
##  6  1885    25
##  7  1886    24
##  8  1887    26
##  9  1888    25
## 10  1889    26
## # ... with 126 more rows
…
